{
  // Nginx Conf
  "nginx.confDir" : "/home/auzmor/Documents/Git-Clone-Auzmor/nginx_conf",

  // SSL
  "ssl.certPath":  "/etc/godaddy/ssl/*.auzmor-hcm.com.crt",
  "ssl.certKeyPath": "/etc/godaddy/ssl/*.auzmor-hcm.com.key",

  // Encryption Configurations
  "encrypt.tokenEncryptKey" : "fCPQKoDUbBI1zVPCpO0bht7l25KyxhU9JCstP3ohm8U",
  "passwordEncryptKey" : "vc9vIi+zaB3Jjjm6zaXIZw==",

  // SMS Account
  "account.sid" : "AC3d95ca6cc6d3133d055a8b80c4d9f69d",
  "auth:token" : "3af073ec59779e244d4ec176e7edf39a"
}
